<?xml version="1.0" encoding="UTF-8" standalone="no"?>
<svg
   xmlns:dc="http://purl.org/dc/elements/1.1/"
   xmlns:cc="http://creativecommons.org/ns#"
   xmlns:rdf="http://www.w3.org/1999/02/22-rdf-syntax-ns#"
   xmlns:svg="http://www.w3.org/2000/svg"
   xmlns="http://www.w3.org/2000/svg"
   xmlns:sodipodi="http://sodipodi.sourceforge.net/DTD/sodipodi-0.dtd"
   xmlns:inkscape="http://www.inkscape.org/namespaces/inkscape"
   viewBox="0 0 64 80"
   enable-background="new 0 0 64 64"
   id="svg2"
   version="1.1"
   inkscape:version="0.48.4 r9939"
   width="100%"
   height="100%"
   sodipodi:docname="duck.svg">
  <metadata
     id="metadata56">
    <rdf:RDF>
      <cc:Work
         rdf:about="">
        <dc:format>image/svg+xml</dc:format>
        <dc:type
           rdf:resource="http://purl.org/dc/dcmitype/StillImage" />
      </cc:Work>
    </rdf:RDF>
  </metadata>
  <defs
     id="defs54" />
  <sodipodi:namedview
     pagecolor="#ffffff"
     bordercolor="#666666"
     borderopacity="1"
     objecttolerance="10"
     gridtolerance="10"
     guidetolerance="10"
     inkscape:pageopacity="0"
     inkscape:pageshadow="2"
     inkscape:window-width="1366"
     inkscape:window-height="713"
     id="namedview52"
     showgrid="true"
     inkscape:snap-global="false"
     inkscape:zoom="8"
     inkscape:cx="22.546113"
     inkscape:cy="20.880591"
     inkscape:window-x="0"
     inkscape:window-y="27"
     inkscape:window-maximized="1"
     inkscape:current-layer="svg2"
     showguides="true"
     inkscape:guide-bbox="true">
    <inkscape:grid
       type="xygrid"
       id="grid3033"
       empspacing="5"
       visible="true"
       enabled="true"
       snapvisiblegridlinesonly="true" />
    <sodipodi:guide
       orientation="0,1"
       position="18.6875,58.296875"
       id="guide3821" />
    <sodipodi:guide
       orientation="1,0"
       position="17.766058,59.08761"
       id="guide3826" />
  </sodipodi:namedview>
  <path
     style="fill:#83bf4f;fill-opacity:1;fill-rule:nonzero;stroke:none"
     d="m 23.997436,10.602603 c 1.003416,0.691854 2.154046,1.113248 4.043766,0.176777 -0.498281,0.977542 -1.052097,1.86517 -1.821778,2.403302 -0.38484,0.269066 -0.823647,0.450758 -1.336461,0.512628 -0.512814,0.06187 -0.209011,0.144525 -0.889881,-0.06568 1.924164,0.03094 2.87872,0.394459 4.811878,-0.957685 -0.735741,2.023605 -1.93934,3.088102 -3.508124,3.40397 0.425773,0.265721 1.916214,0.267488 3.370938,-0.84489 -0.728327,1.922713 -2.566885,3.60715 -4.566562,2.99886 l -0.02644,0.01831 -0.0706,-4.636922 z"
     id="rect3828"
     inkscape:connector-curvature="0"
     sodipodi:nodetypes="ccsscccccccc" />
  <path
     style="fill:#83bf4f;fill-opacity:1;fill-rule:nonzero;stroke:none"
     d="m 11.75707,4.820692 c 0,0 1.867836,0.02226 2.635701,0.22761 0.854771,0.228587 2.358287,1.218377 2.358287,1.218377 l 0.991287,-1.84336 c 0,0 1.179741,-1.708482 1.641933,-2.1207 C 19.233877,3.734081 18.920787,6.328414 19.148576,6.573672 19.901382,5.736558 19.445759,6.226855 19.76403,5.908937 21.084763,4.589669 24.191891,3.317717 23.489837,3.7089 22.303163,4.370111 21.369152,6.298086 21.838156,8.495848 L 15.452682,8.281549 C 14.581373,6.969245 13.337343,5.713762 11.75707,4.820692 z"
     id="rect3823"
     inkscape:connector-curvature="0"
     sodipodi:nodetypes="csccccssccc" />
  <path
     d="m 25.5,15.4 c 0,-4.4 -3.3,-8 -7.3,-8 -4,0 -7.3,3.6 -7.3,8 0,2.4 1.7,5 2.6,7.1 0.8,1.8 0.6,8 0.6,8 h 8.1 c 0,0 0,-6.2 0.7,-8 0.9,-2.1 2.6,-4.7 2.6,-7.1"
     id="path4"
     style="fill:#83bf4f"
     inkscape:connector-curvature="0" />
  <path
     d="m 55.8,42.3 c -2,1.7 -3.9,2.3 -3.9,2.3 5,-5.6 7,-12.2 7,-12.2 -4.1,4.5 -6.6,5 -6.6,5 2.6,-2.7 6.1,-11.9 6.1,-11.9 0,0 -6.3,5.4 -11.6,7.9 -26,12.3 -24.6,-2.9 -24.6,-2.9 l -8.1,0 c 0,6.9 -7.1,13.6 -2.3,24 2.95,6.3 12.36066,24.727476 19.89816,24.064976 C 39.23566,77.902476 44.9,58.15 49.1,54.5 c 10.9,-9.4 11,-16.9 11,-16.9 0,0 -2.1,2.8 -4.3,4.7"
     id="path6"
     inkscape:connector-curvature="0"
     style="fill:#d3976e"
     sodipodi:nodetypes="cccccccccsccc" />
  <path
     d="m 16.509633,19.804653 c 0,0 -0.348616,1.552974 -2.148616,3.152974 -0.976271,1.132204 -2.547458,2.518644 -3.947458,2.518644 C 8.3135593,25.476271 7.2,22.6 10.2,21.5 c 2.9,-1.1 4.632203,-0.452542 6.232203,-1.752542"
     id="path8"
     inkscape:connector-curvature="0"
     style="fill:#f29a2e"
     sodipodi:nodetypes="ccscc" />
  <path
     d="M 11.9,17.9 C 10.5,17.9 8,20.1 5.7,18.5 5.3,18.2 4.6,17.1 4,17.8 c -0.7,0.8 3.1,8.7 12.5,2 0,0.1 -0.6,-1.9 -4.6,-1.9"
     id="path10"
     inkscape:connector-curvature="0"
     style="fill:#ffd93b" />
  <path
     d="m 14.097926,27.890462 8.163448,0.01278 L 22.2,30.5 l -8.1,0 z"
     id="path12"
     inkscape:connector-curvature="0"
     style="fill:#e8e8e8"
     sodipodi:nodetypes="ccccc" />
  <path
     id="path40"
     style="fill:#594640"
     d="m 22.4,42.8 c 0.61875,5.86875 6.29375,9.91875 12.79375,9.11875 C 44.99375,50.81875 52.1,38.3 52.1,38.3 c 0,0 -8.9,9.9 -19.2,9.9 C 25.2,48.3 23,45 22.4,42.8 M 54.6,22.6 c 0,0 -9,7.6 -22.4,9.1 -15.3,1.7 -11.9,20 1.9,18.5 9.8,-1.1 18,-11.9 18,-11.9 L 45.9,40 c 0,0 5.9,-4.6 8.2,-9.3 l -8.8,3.6 c 0,0 4.7,-2.4 9.3,-11.7" />
  <path
     style="fill:#d3976e"
     sodipodi:nodetypes="ccccccccccccccc"
     inkscape:connector-curvature="0"
     id="path20"
     d="m 35.037182,39.475955 c -0.279768,-1.230514 -0.884138,-2.25338 -2.003207,-2.745586 0.139885,-0.369154 0.293442,-0.940201 0.153558,-1.432407 -0.279767,-1.353566 -2.328928,-2.111921 -4.007532,-1.865818 -0.279768,0 -0.559535,0.123051 -0.699419,0.246103 1.258952,0.123051 2.378023,0.984412 2.517907,2.091875 0.139882,0.492206 0,1.107463 -0.279768,1.476618 0.979185,0.492206 1.678604,1.353566 1.818487,2.337978 0.279768,1.107464 -0.279767,2.214927 -0.979187,2.953236 0.69942,0.369154 1.258955,0.984412 1.398837,1.845772 0.279768,1.230515 -0.559533,2.46103 -1.818487,2.830185 0.279768,0 0.41965,0 0.559535,0 1.53872,-0.246103 3.182353,-1.445855 2.902585,-2.799422 -0.139883,-0.615257 -0.944213,-1.261278 -1.363865,-1.507381 1.119071,-0.86136 2.080322,-2.200638 1.800556,-3.431153" />
  <path
     style="fill:#d3976e"
     sodipodi:nodetypes="cccccccsccccccc"
     inkscape:connector-curvature="0"
     id="path22"
     d="m 42.250788,39.010156 c -0.01771,-1.271361 -0.600285,-2.344943 -1.835413,-3.007242 0.256447,-0.448353 0.556979,-1.149148 0.520607,-1.664383 -0.136602,-1.425248 -2.339996,-2.113234 -4.032999,-2.11972 -0.292813,-0.06688 -0.613138,-0.01331 -0.787054,0.0737 1.31766,0.300953 2.323848,1.291158 2.515476,2.47551 0.03637,0.515232 -0.07367,0.997025 -0.330126,1.445379 0.942316,0.59542 1.655693,1.518745 1.700912,2.669659 0.04521,1.150912 -0.495186,2.168068 -1.392283,2.723562 0.823421,0.441532 1.271494,1.17753 1.371734,2.087547 0.01771,1.271361 -0.843021,2.342087 -2.270722,2.522927 0.292815,0.06688 0.439219,0.100312 0.613137,0.01331 1.693005,0.0065 3.417335,-0.84691 3.427136,-2.238719 -0.0089,-0.63568 -0.908818,-1.368243 -1.265508,-1.829905 0.924605,-0.675942 1.929217,-1.846823 1.765103,-3.151624" />
  <path
     d="m 16.1,34.2 c -1.3,0 -2.2,0.4 -2.9,1 -1.7,5.4 -5.1,11.2 -1.4,19.2 1.8,3.8 5.1,6 9.1,6.9 C 12.2,58.6 23,34.2 16.1,34.2"
     id="path24"
     inkscape:connector-curvature="0"
     style="fill:#fed0ac" />
  <path
     d="m 13.7,15.4 c 0,-1.3 1,-2.6 2.3,-2.6 1.3,0 2.3,1.4 2.3,2.6 0,1.2 -1,1.8 -2.3,1.8 -1.3,0 -2.3,-0.5 -2.3,-1.8"
     id="path42"
     inkscape:connector-curvature="0"
     style="fill:#3e4347" />
  <path
     d="M 57.7,57.026265 C 55.3,57.026265 55,54 53.4,54 51.8,54 51.5,57.026265 49.1,57.026265 46.7,57.026265 46.4,54 44.8,54 43.2,54 42.9,57.026265 40.5,57.026265 38.1,57.026265 37.8,54 36.2,54 34.6,54 34.3,57.026265 31.9,57.026265 29.5,57.026265 29.3,54 27.7,54 26.1,54 25.8,57.026265 23.4,57.026265 21,57.026265 20.7,54 19.1,54 17.5,54 17.2,57.026265 14.8,57.026265 12.4,57.026265 12.1,54 10.6,54 9.1,54 8.7,57.026265 6.3,57.026265 3.9,57.026265 2,54 2,54 l 0,25.819544 60.176777,0 L 62,54 c 0,0 -1.9,3.026265 -4.3,3.026265"
     id="path44"
     style="fill:#75d6ff"
     inkscape:connector-curvature="0"
     sodipodi:nodetypes="cssssssssssssccccc" />
  <path
     style="fill:#42ade2"
     inkscape:connector-curvature="0"
     id="path50"
     d="M 55.76123,68.549505 C 47.783288,70.282683 42.269123,59.691034 34.056537,65.660873 40.509283,64.890571 50.01242,73.171314 55.76123,68.549505" />
  <path
     d="M 29.978427,68.740901 C 21.240253,70.639236 15.200634,59.038292 6.2054564,65.577006 13.273096,64.733301 23.681803,73.80313 29.978427,68.740901"
     id="path3805"
     inkscape:connector-curvature="0"
     style="fill:#42ade2" />
</svg>
