<?xml version="1.0" encoding="UTF-8" standalone="no"?>
<svg
   xmlns:dc="http://purl.org/dc/elements/1.1/"
   xmlns:cc="http://creativecommons.org/ns#"
   xmlns:rdf="http://www.w3.org/1999/02/22-rdf-syntax-ns#"
   xmlns:svg="http://www.w3.org/2000/svg"
   xmlns="http://www.w3.org/2000/svg"
   xmlns:sodipodi="http://sodipodi.sourceforge.net/DTD/sodipodi-0.dtd"
   xmlns:inkscape="http://www.inkscape.org/namespaces/inkscape"
   viewBox="0 0 64 64"
   enable-background="new 0 0 64 64"
   id="svg2"
   version="1.1"
   inkscape:version="0.48.4 r9939"
   width="100%"
   height="100%"
   sodipodi:docname="fish.svg">
  <metadata
     id="metadata32">
    <rdf:RDF>
      <cc:Work
         rdf:about="">
        <dc:format>image/svg+xml</dc:format>
        <dc:type
           rdf:resource="http://purl.org/dc/dcmitype/StillImage" />
      </cc:Work>
    </rdf:RDF>
  </metadata>
  <defs
     id="defs30" />
  <sodipodi:namedview
     pagecolor="#ffffff"
     bordercolor="#666666"
     borderopacity="1"
     objecttolerance="10"
     gridtolerance="10"
     guidetolerance="10"
     inkscape:pageopacity="0"
     inkscape:pageshadow="2"
     inkscape:window-width="1366"
     inkscape:window-height="713"
     id="namedview28"
     showgrid="false"
     inkscape:zoom="41.7193"
     inkscape:cx="3.6712247"
     inkscape:cy="21.791877"
     inkscape:window-x="0"
     inkscape:window-y="27"
     inkscape:window-maximized="1"
     inkscape:current-layer="svg2"
     showguides="true"
     inkscape:guide-bbox="true">
    <sodipodi:guide
       orientation="1,0"
       position="36.002522,32.119427"
       id="guide3772" />
    <sodipodi:guide
       orientation="0,1"
       position="3.787216,20.278384"
       id="guide3774" />
    <sodipodi:guide
       orientation="1,0"
       position="4.1947013,21.50084"
       id="guide3795" />
  </sodipodi:namedview>
  <path
     style="fill:#728389"
     inkscape:connector-curvature="0"
     d="m 58.7,41.5 c 0,-3.5 4.9,-11.4 2.6,-13.8 -2.5,-2.6 -8.3,8.5 -11.2,8.5 -3.5,0 -5.6,-4.3 -7.3,-6.1 -1.4,-1.4 2.6,-7 0.8,-7.4 C 36.1,20.9 35.1,25.3 31,24.2 27.8,23.4 24.5,22.9 21.3,22.9 9.3,22.9 7,31.5 4.9,39.5 4.5,40.7 16.6,51 16.6,51 c 0,0 -9.2,-5.2 -9,-4 1.5,6.6 7.7,10.8 14.7,12.4 2,0.5 4.1,0.7 6.1,0.7 12.8,0 14.8,-9.9 21.7,-11.1 4.2,-0.7 8.7,7.4 11.1,4.9 2.6,-2.6 -2.5,-8.3 -2.5,-12.4"
     id="path4" />
  <path
     style="fill:#8d9ba3"
     inkscape:connector-curvature="0"
     id="path8"
     d="m 48.1,60.5 c -1.2,1.2 -3.6,2.7 -6.2,0 -2.6,-2.7 -5.4,-7.5 -4.2,-8.7 1.2,-1.2 5.8,1.7 8.4,4.4 2.6,2.6 3.2,3.1 2,4.3" />
  <ellipse
     style="fill:#fcfcfa"
     sodipodi:ry="7.4000001"
     sodipodi:rx="7.0999999"
     sodipodi:cy="38.5"
     sodipodi:cx="18.700001"
     cx="18.700001"
     cy="38.5"
     rx="7.0999999"
     ry="7.4000001"
     id="ellipse24" />
  <path
     sodipodi:type="arc"
     style="fill:#75d6ff;fill-opacity:1;fill-rule:nonzero;stroke:#75d6ff;stroke-width:0.1;stroke-linecap:round;stroke-linejoin:round;stroke-miterlimit:4;stroke-opacity:1;stroke-dasharray:none"
     id="path3770"
     sodipodi:cx="14.933137"
     sodipodi:cy="12.824645"
     sodipodi:rx="6.8793101"
     sodipodi:ry="6.8793101"
     d="m 21.812447,12.824645 a 6.8793101,6.8793101 0 1 1 -13.7586202,0 6.8793101,6.8793101 0 1 1 13.7586202,0 z"
     transform="matrix(1.1413479,0,0,1.2040258,-4.1961341,-5.1813192)" />
  <path
     sodipodi:type="arc"
     style="fill:#75d6ff;fill-opacity:1;fill-rule:nonzero;stroke:#75d6ff;stroke-width:0.1;stroke-linecap:round;stroke-linejoin:round;stroke-miterlimit:4;stroke-opacity:1;stroke-dasharray:none"
     id="path3776"
     sodipodi:cx="6.9751887"
     sodipodi:cy="23.419262"
     sodipodi:rx="3.4756095"
     sodipodi:ry="3.4756095"
     d="m 10.450798,23.419262 a 3.4756095,3.4756095 0 1 1 -6.9512188,0 3.4756095,3.4756095 0 1 1 6.9512188,0 z"
     transform="matrix(1.2776364,0,0,1.3328088,-2.7275676,-7.7701681)" />
  <path
     sodipodi:type="arc"
     style="fill:#75d6ff;fill-opacity:1;fill-rule:nonzero;stroke:#75d6ff;stroke-width:0.1;stroke-linecap:round;stroke-linejoin:round;stroke-miterlimit:4;stroke-opacity:1;stroke-dasharray:none"
     id="path3778"
     sodipodi:cx="18.648443"
     sodipodi:cy="39.023552"
     sodipodi:rx="4.889823"
     sodipodi:ry="4.889823"
     d="m 23.538266,39.023552 a 4.889823,4.889823 0 1 1 -9.779646,0 4.889823,4.889823 0 1 1 9.779646,0 z"
     transform="translate(0.04793975,-0.62321279)" />
  <g
     id="g3788"
     transform="translate(-0.09587935,-4.883897e-8)">
    <path
       transform="matrix(1.1242741,0,0,1.1242741,-4.4158583,-5.1485356)"
       d="m 36.242218,36.028282 c 0,2.184811 -1.094625,3.95595 -2.444912,3.95595 -1.350287,0 -2.444911,-1.771139 -2.444911,-3.95595 0,-2.184811 1.094624,-3.95595 2.444911,-3.95595 1.350287,0 2.444912,1.771139 2.444912,3.95595 z"
       sodipodi:ry="3.95595"
       sodipodi:rx="2.4449115"
       sodipodi:cy="36.028282"
       sodipodi:cx="33.797306"
       id="path3782"
       style="fill:#75d6ff;fill-opacity:1;fill-rule:nonzero;stroke:#75d6ff;stroke-width:0.1;stroke-linecap:round;stroke-linejoin:round;stroke-miterlimit:4;stroke-opacity:1;stroke-dasharray:none"
       sodipodi:type="arc" />
    <path
       transform="matrix(0.80754818,0,0,0.80754818,6.6912225,6.5549834)"
       d="m 39.933557,40.365856 c 0,1.932765 -0.751213,3.49958 -1.677881,3.49958 -0.926668,0 -1.67788,-1.566815 -1.67788,-3.49958 0,-1.932764 0.751212,-3.499579 1.67788,-3.499579 0.926668,0 1.677881,1.566815 1.677881,3.499579 z"
       sodipodi:ry="3.4995794"
       sodipodi:rx="1.6778805"
       sodipodi:cy="40.365856"
       sodipodi:cx="38.255676"
       id="path3784"
       style="fill:#75d6ff;fill-opacity:1;fill-rule:nonzero;stroke:#75d6ff;stroke-width:0.1;stroke-linecap:round;stroke-linejoin:round;stroke-miterlimit:4;stroke-opacity:1;stroke-dasharray:none"
       sodipodi:type="arc" />
    <path
       transform="translate(-0.3355761,0)"
       d="m 41.563499,34.900757 c 0,1.297335 -0.493654,2.349032 -1.102607,2.349032 -0.608953,0 -1.102607,-1.051697 -1.102607,-2.349032 0,-1.297335 0.493654,-2.349033 1.102607,-2.349033 0.608953,0 1.102607,1.051698 1.102607,2.349033 z"
       sodipodi:ry="2.3490326"
       sodipodi:rx="1.1026071"
       sodipodi:cy="34.900757"
       sodipodi:cx="40.460892"
       id="path3786"
       style="fill:#75d6ff;fill-opacity:1;fill-rule:nonzero;stroke:#75d6ff;stroke-width:0.1;stroke-linecap:round;stroke-linejoin:round;stroke-miterlimit:4;stroke-opacity:1;stroke-dasharray:none"
       sodipodi:type="arc" />
  </g>
  <path
     sodipodi:type="arc"
     style="fill:#75d6ff;fill-opacity:1;fill-rule:nonzero;stroke:#75d6ff;stroke-width:0.10000000000000001;stroke-linecap:round;stroke-linejoin:round;stroke-miterlimit:4;stroke-opacity:1;stroke-dasharray:none"
     id="path3793"
     sodipodi:cx="4.4104285"
     sodipodi:cy="44.536587"
     sodipodi:rx="2.0374262"
     sodipodi:ry="2.0374262"
     d="m 6.4478548,44.536587 a 2.0374262,2.0374262 0 1 1 -4.0748525,0 2.0374262,2.0374262 0 1 1 4.0748525,0 z"
     transform="matrix(0.9766002,0,0,1.0174963,-0.13649379,-1.6061838)" />
</svg>
