<?xml version="1.0" encoding="UTF-8" standalone="no"?>
<svg
   xmlns:dc="http://purl.org/dc/elements/1.1/"
   xmlns:cc="http://creativecommons.org/ns#"
   xmlns:rdf="http://www.w3.org/1999/02/22-rdf-syntax-ns#"
   xmlns:svg="http://www.w3.org/2000/svg"
   xmlns="http://www.w3.org/2000/svg"
   xmlns:sodipodi="http://sodipodi.sourceforge.net/DTD/sodipodi-0.dtd"
   xmlns:inkscape="http://www.inkscape.org/namespaces/inkscape"
   viewBox="0 0 64 64"
   enable-background="new 0 0 64 64"
   id="svg2"
   version="1.1"
   inkscape:version="0.48.4 r9939"
   width="100%"
   height="100%"
   sodipodi:docname="apple.svg">
  <metadata
     id="metadata14">
    <rdf:RDF>
      <cc:Work
         rdf:about="">
        <dc:format>image/svg+xml</dc:format>
        <dc:type
           rdf:resource="http://purl.org/dc/dcmitype/StillImage" />
        <dc:title />
      </cc:Work>
    </rdf:RDF>
  </metadata>
  <defs
     id="defs12" />
  <sodipodi:namedview
     pagecolor="#ffffff"
     bordercolor="#666666"
     borderopacity="1"
     objecttolerance="10"
     gridtolerance="10"
     guidetolerance="10"
     inkscape:pageopacity="0"
     inkscape:pageshadow="2"
     inkscape:window-width="1366"
     inkscape:window-height="713"
     id="namedview10"
     showgrid="true"
     inkscape:zoom="8"
     inkscape:cx="31.390191"
     inkscape:cy="29.049539"
     inkscape:window-x="0"
     inkscape:window-y="27"
     inkscape:window-maximized="1"
     inkscape:current-layer="svg2"
     showguides="true"
     inkscape:guide-bbox="true">
    <inkscape:grid
       type="xygrid"
       id="grid3857"
       empspacing="5"
       visible="true"
       enabled="true"
       snapvisiblegridlinesonly="true" />
  </sodipodi:namedview>
  <g
     id="g3791">
    <path
       sodipodi:nodetypes="cscssssc"
       inkscape:connector-curvature="0"
       id="path3817"
       d="m 44.746744,41.299889 c 0.470777,7.861002 0.382039,8.6119 -2.009002,8.292329 -2.847035,-0.380516 -7.648453,0.06164 -14.657681,-0.230614 -4.607148,-0.611887 -8.286312,-0.05934 -9.406072,-2.934777 -0.606638,-1.557792 0.413502,-3.965434 0.799602,-5.933399 1.025064,-5.22478 0.05013,-9.68512 7.086447,-10.522875 1.152866,-0.137262 10.935394,-3.02024 14.340634,0.207109 3.257859,3.087666 3.795318,10.042886 3.846072,11.122227 z"
       style="fill:#bd8f5e;fill-opacity:1;fill-rule:nonzero;stroke:#000000;stroke-width:0.07759193;stroke-miterlimit:4;stroke-opacity:1;stroke-dasharray:none" />
    <path
       style="fill:#c09560;fill-opacity:1;fill-rule:nonzero;stroke:#000000;stroke-width:0.07759193;stroke-miterlimit:4;stroke-opacity:1;stroke-dasharray:none"
       d="m 41.687941,9.7439961 c 1.584714,5.0002939 2.406323,10.0862109 4.14922,10.0816079 0.77244,-0.002 1.357143,-0.254096 2.209798,-0.681541 2.88569,-1.446626 4.937978,-7.168956 -0.01483,-10.6110119 -2.878081,-1.0104864 -4.411643,-0.3013654 -6.344193,1.210945 z"
       id="path3770"
       inkscape:connector-curvature="0"
       sodipodi:nodetypes="csscc" />
    <path
       sodipodi:nodetypes="cscc"
       inkscape:connector-curvature="0"
       id="path3767"
       d="M 28.741675,6.2228018 C 23.48792,12.077815 20.393449,15.13542 18.950991,10.564711 17.887073,7.193479 18.545701,2.4155494 23.520263,2.1098462 c 3.037279,0.2817126 4.095531,1.9325369 5.221412,4.1129556 z"
       style="fill:#c09560;fill-opacity:1;fill-rule:nonzero;stroke:#000000;stroke-width:0.07759193;stroke-miterlimit:4;stroke-opacity:1;stroke-dasharray:none" />
    <path
       sodipodi:nodetypes="ssssss"
       inkscape:connector-curvature="0"
       id="path3764"
       d="m 45.665634,17.088256 c 0.553293,5.027916 -1.725082,8.83366 -5.389453,10.848109 -1.998241,1.098512 -4.831388,1.327823 -7.342353,1.525867 C 26.027986,30.006905 19.860849,24.371221 19.611497,16.898985 19.392419,10.333983 24.699548,5.3598513 31.921194,5.0268357 39.002109,4.70031 44.899086,10.122416 45.665634,17.088256 z"
       style="opacity:0.98000004;fill:#caa066;fill-opacity:1;fill-rule:nonzero;stroke:#000000;stroke-width:0.07759193;stroke-miterlimit:4;stroke-opacity:1;stroke-dasharray:none" />
    <path
       style="fill:#c09560;fill-opacity:1;fill-rule:nonzero;stroke:#000000;stroke-width:0.07759193;stroke-miterlimit:4;stroke-opacity:1;stroke-dasharray:none"
       d="m 39.659581,31.531872 c 0.794195,1.016565 1.781304,1.602848 2.14526,2.818533 0.355719,1.18817 0.09138,3.000597 0.587616,4.437128 0.402963,5.099951 5.417666,8.205411 9.081318,4.83035 1.601892,-1.68639 2.642129,-3.279227 2.066933,-5.390186 -0.690594,-2.534466 -2.458682,-5.193079 -5.290898,-6.890172 -4.783754,-2.866473 -7.105985,-2.424121 -8.619832,-2.370303 -2.631871,0.09356 -1.766277,0.265935 0.0296,2.56465 z"
       id="path3813"
       inkscape:connector-curvature="0"
       sodipodi:nodetypes="ssccssss" />
    <path
       sodipodi:nodetypes="ssssssss"
       inkscape:connector-curvature="0"
       id="path3810"
       d="m 23.379202,32.339436 c -0.791459,1.698907 -2.224537,3.256958 -2.888826,5.896369 -0.281077,1.116801 0.518041,4.943374 -3.852391,5.814835 -1.430768,0.285295 -2.850964,0.165946 -4.65579,-1.422238 -1.523189,-1.340355 -1.895557,-3.308704 -1.578975,-5.209175 0.380095,-2.28175 2.007843,-4.202806 4.225363,-5.682052 4.037944,-2.693601 6.054108,-2.801013 7.365565,-2.801013 2.425964,0 2.52026,0.966495 1.385054,3.403274 z"
       style="fill:#c09560;fill-opacity:1;fill-rule:nonzero;stroke:#000000;stroke-width:0.07759193;stroke-miterlimit:4;stroke-opacity:1;stroke-dasharray:none" />
    <path
       sodipodi:nodetypes="ccssccsscc"
       inkscape:connector-curvature="0"
       id="rect3035"
       d="m 24.076755,28.721822 c 0.481158,-0.314166 1.575985,-0.302732 1.984173,-0.269983 2.115065,0.17717 5.290661,0.698514 5.239694,1.379764 -0.247344,3.306119 0.708286,3.552934 -1.66608,4.641217 -0.615398,0.282065 -0.366835,0.227696 -1.763091,0.57205 -0.772096,0.216261 -2.078136,0.281083 -2.737518,0.117945 -1.458864,-0.332957 -1.561285,-1.143279 -1.626093,-1.493437 -0.12036,-0.650337 0.495312,-0.960074 0.583963,-1.998786 0.06304,-0.738661 -1.320773,-2.207087 -0.01511,-2.94877 z"
       style="fill:#552200;fill-opacity:1;stroke:none" />
    <path
       style="fill:#552200;fill-opacity:1;stroke:none"
       d="m 38.375409,28.635698 c -0.481158,-0.314166 -1.575985,-0.302732 -1.984173,-0.269983 -2.115065,0.177171 -5.290661,0.698514 -5.239694,1.379764 0.247345,3.306119 -0.708287,3.552934 1.66608,4.641217 0.615398,0.282066 0.366835,0.227696 1.763091,0.57205 0.772096,0.216261 2.078136,0.281083 2.737518,0.117946 1.458864,-0.332958 1.561285,-1.143279 1.626093,-1.493438 0.12036,-0.650336 -0.495312,-0.960074 -0.583963,-1.998785 -0.06304,-0.738662 1.320773,-2.207088 0.01512,-2.948771 z"
       id="path3806"
       inkscape:connector-curvature="0"
       sodipodi:nodetypes="ccssccsscc" />
    <path
       sodipodi:nodetypes="sssssss"
       inkscape:connector-curvature="0"
       id="path3776"
       d="m 37.287217,23.582481 c 0.400417,2.195277 -0.977395,3.602225 -1.934053,4.314942 -1.432149,1.06696 -2.0489,1.092937 -3.861259,1.309584 -3.583046,0.428311 -8.447554,-3.922117 -6.720925,-6.833783 1.107685,-1.867923 0.751203,-1.223521 1.619803,-2.355308 1.192486,-1.553809 3.687473,-3.138117 5.532093,-2.529574 2.500318,0.824858 4.984191,4.009967 5.364341,6.094139 z"
       style="opacity:0.98000004;fill:#f2ca96;fill-opacity:1;fill-rule:nonzero;stroke:#000000;stroke-width:0.07759193;stroke-miterlimit:4;stroke-opacity:1;stroke-dasharray:none" />
    <path
       style="fill:#0b2822;fill-opacity:1;fill-rule:nonzero;stroke:#000000;stroke-width:0.11645343;stroke-miterlimit:4;stroke-opacity:1;stroke-dasharray:none"
       d="m 34.289743,21.785139 c 0.404342,-1.818357 -1.526955,-3.516436 -3.085786,-3.432215 -2.040719,0 -3.454306,1.700367 -2.454317,3.582112 0.660284,1.301791 1.542459,2.720801 3.293931,1.933349 1.285627,-0.57525 2.025616,-1.345651 2.246172,-2.083246 z"
       id="path3779"
       inkscape:connector-curvature="0"
       sodipodi:nodetypes="ccccc" />
    <path
       sodipodi:nodetypes="cc"
       inkscape:connector-curvature="0"
       id="path3781"
       d="m 30.04963,26.617546 c 1.133691,1.403957 0.455479,1.572268 1.904643,-0.102543"
       style="fill:#000000;fill-opacity:0.94063924000000021;stroke:none;stroke-width:0.09300000000000000;stroke-linecap:butt;stroke-linejoin:miter;stroke-miterlimit:4;stroke-opacity:1;stroke-dasharray:none" />
    <path
       sodipodi:nodetypes="sssssss"
       inkscape:connector-curvature="0"
       id="path3820"
       d="m 29.987883,52.165481 c 0.262744,4.390684 -2.547243,7.900073 -7.202277,7.795871 -1.331324,-0.0298 -2.736754,-0.430839 -3.806861,-1.112758 -2.126338,-1.354992 -3.395414,-3.818981 -3.395414,-6.683113 0,-4.30554 3.224866,-7.747214 7.202275,-7.79587 2.523393,-0.03087 4.948185,1.218101 6.205782,3.21428 0.800319,1.270344 0.892473,2.843299 0.996495,4.58159 z"
       style="fill:#a57d4f;fill-opacity:1;fill-rule:nonzero;stroke:#000000;stroke-width:0.07759193;stroke-miterlimit:4;stroke-opacity:1;stroke-dasharray:none" />
    <path
       sodipodi:nodetypes="ssssssss"
       inkscape:connector-curvature="0"
       id="path3822"
       d="m 44.352862,57.270391 c -0.543162,1.098089 -1.11623,1.650294 -1.841207,2.239135 -1.975783,1.604777 -4.548482,2.667909 -7.458435,2.311754 -3.948245,-0.483234 -6.839872,-3.530147 -7.123131,-7.518858 -0.342789,-4.827008 2.640395,-7.245125 6.529537,-7.598008 0.300794,-0.02729 2.701196,0.260013 3.917728,0.165526 1.552651,-0.120593 3.564263,-0.60424 4.893505,0.486243 2.410933,1.97788 3.066662,5.901896 1.082003,9.914208 z"
       style="fill:#a57d4f;fill-opacity:1;fill-rule:nonzero;stroke:#000000;stroke-width:0.07759193;stroke-miterlimit:4;stroke-opacity:1;stroke-dasharray:none" />
    <path
       transform="matrix(0.04928104,0,0,0.04515788,126.7978,22.519602)"
       d="m -2027.2023,660.87567 a 93.026489,108.53091 0 1 1 -186.0529,0 93.026489,108.53091 0 1 1 186.0529,0 z"
       sodipodi:ry="108.53091"
       sodipodi:rx="93.026489"
       sodipodi:cy="660.87567"
       sodipodi:cx="-2120.2288"
       id="path3826"
       style="fill:#dfae76;fill-opacity:1;fill-rule:nonzero;stroke:#000000;stroke-width:1.89999998;stroke-linecap:round;stroke-linejoin:round;stroke-miterlimit:4;stroke-opacity:1;stroke-dasharray:none"
       sodipodi:type="arc" />
    <path
       sodipodi:type="arc"
       style="fill:#dfae76;fill-opacity:1;fill-rule:nonzero;stroke:#000000;stroke-width:1.89999998;stroke-linecap:round;stroke-linejoin:round;stroke-miterlimit:4;stroke-opacity:1;stroke-dasharray:none"
       id="path3828"
       sodipodi:cx="-2120.2288"
       sodipodi:cy="660.87567"
       sodipodi:rx="93.026489"
       sodipodi:ry="108.53091"
       d="m -2027.2023,660.87567 a 93.026489,108.53091 0 1 1 -186.0529,0 93.026489,108.53091 0 1 1 186.0529,0 z"
       transform="matrix(0.04928104,0,0,0.04515788,139.14456,23.785936)" />
    <path
       sodipodi:type="arc"
       style="fill:#241f1c;fill-opacity:1;fill-rule:nonzero;stroke:#000000;stroke-width:1.89999998;stroke-miterlimit:4;stroke-opacity:1;stroke-dasharray:none"
       id="path3774"
       sodipodi:cx="-369.668"
       sodipodi:cy="-214.23894"
       sodipodi:rx="40.769688"
       sodipodi:ry="48.992146"
       d="m -328.89831,-214.23894 a 40.769688,48.992146 0 1 1 -81.53938,0 40.769688,48.992146 0 1 1 81.53938,0 z"
       transform="matrix(0.0549739,0,0,0.0549739,57.837359,29.733316)" />
    <path
       transform="matrix(1.1384615,0,0,1.1384615,-4.3625,-3.8990385)"
       d="m 33.3125,31.09375 a 2.03125,2.03125 0 1 1 -4.0625,0 2.03125,2.03125 0 1 1 4.0625,0 z"
       sodipodi:ry="2.03125"
       sodipodi:rx="2.03125"
       sodipodi:cy="31.09375"
       sodipodi:cx="31.28125"
       id="path3814"
       style="fill:#0e0c09;fill-opacity:1;fill-rule:nonzero;stroke:none"
       sodipodi:type="arc" />
    <path
       sodipodi:type="arc"
       style="fill:#241f1c;fill-opacity:1;fill-rule:nonzero;stroke:#000000;stroke-width:1.89999998;stroke-miterlimit:4;stroke-opacity:1;stroke-dasharray:none"
       id="path3774-4"
       sodipodi:cx="-369.668"
       sodipodi:cy="-214.23894"
       sodipodi:rx="40.769688"
       sodipodi:ry="48.992146"
       d="m -328.89831,-214.23894 a 40.769688,48.992146 0 1 1 -81.53938,0 40.769688,48.992146 0 1 1 81.53938,0 z"
       transform="matrix(0.0549739,0,0,0.0549739,47.581012,27.330011)" />
    <path
       transform="matrix(0.02529174,0,0,0.03204529,37.658561,22.942307)"
       d="m -348.84934,-248.07065 a 7.2676945,12.597338 0 1 1 -14.53539,0 7.2676945,12.597338 0 1 1 14.53539,0 z"
       sodipodi:ry="12.597338"
       sodipodi:rx="7.2676945"
       sodipodi:cy="-248.07065"
       sodipodi:cx="-356.11703"
       id="path3871-1-2"
       style="fill:#ffffff;fill-opacity:1;fill-rule:nonzero;stroke:#ffffff;stroke-width:4;stroke-linecap:round;stroke-linejoin:round;stroke-miterlimit:4;stroke-opacity:1;stroke-dasharray:none"
       sodipodi:type="arc" />
    <path
       sodipodi:type="arc"
       style="fill:#ffffff;fill-opacity:1;fill-rule:nonzero;stroke:#ffffff;stroke-width:4;stroke-linecap:round;stroke-linejoin:round;stroke-miterlimit:4;stroke-opacity:1;stroke-dasharray:none"
       id="path3853"
       sodipodi:cx="-356.11703"
       sodipodi:cy="-248.07065"
       sodipodi:rx="7.2676945"
       sodipodi:ry="12.597338"
       d="m -348.84934,-248.07065 a 7.2676945,12.597338 0 1 1 -14.53539,0 7.2676945,12.597338 0 1 1 14.53539,0 z"
       transform="matrix(0.02529174,0,0,0.03204529,47.877599,25.00687)" />
  </g>
</svg>
